Create R-examples
…
The problem is that the data set looks like this when we select the variables SUB_ID, T3T1_PERCENT_CHANGE_FAST_CSA and T3T1_PERCENT_CHANGE_SLOW_CSA:

## # A tibble: 30 x 3
##    SUB_ID T3T1_PERCENT_CHANGE_FAST_CSA T3T1_PERCENT_CHANGE_SLOW_CSA
##    <chr>                         <dbl>                        <dbl>
##  1 MRV001                        14.7                        -12.3 
##  2 MRV002                        16.2                         10.0 
##  3 MRV003                        39.8                         14.8 
##  4 MRV004                        -2.55                        12.0 
##  5 MRV005                        59.7                         63.6 
##  6 MRV006                        -6.87                       -18.2 
##  7 MRV007                         7.7                        -12.5 
##  8 MRV009                        25.7                          3.1 
##  9 MRV010                        -0.63                        -3.38
## 10 MRV011                        45.4                         26.6 
## # ... with 20 more rows

And before plotting, we would like it to look like this:

## # A tibble: 60 x 3
##    SUB_ID fibertype                    change
##    <chr>  <chr>                         <dbl>
##  1 MRV001 T3T1_PERCENT_CHANGE_FAST_CSA  14.7 
##  2 MRV001 T3T1_PERCENT_CHANGE_SLOW_CSA -12.3 
##  3 MRV002 T3T1_PERCENT_CHANGE_FAST_CSA  16.2 
##  4 MRV002 T3T1_PERCENT_CHANGE_SLOW_CSA  10.0 
##  5 MRV003 T3T1_PERCENT_CHANGE_FAST_CSA  39.8 
##  6 MRV003 T3T1_PERCENT_CHANGE_SLOW_CSA  14.8 
##  7 MRV004 T3T1_PERCENT_CHANGE_FAST_CSA  -2.55
##  8 MRV004 T3T1_PERCENT_CHANGE_SLOW_CSA  12.0 
##  9 MRV005 T3T1_PERCENT_CHANGE_FAST_CSA  59.7 
## 10 MRV005 T3T1_PERCENT_CHANGE_SLOW_CSA  63.6 
## # ... with 50 more rows
…
